{
  "project_info": {
    "project_number": "144790832841",
    "firebase_url": "https://drxmob-309206-default-rtdb.firebaseio.com",
    "project_id": "drxmob-309206",
    "storage_bucket": "drxmob-309206.appspot.com"
  },
  "client": [
    {
      "client_info": {
        "mobilesdk_app_id": "1:144790832841:android:317bef8fb99158731d6f18",
        "android_client_info": {
          "package_name": "com.drxmob.driver"
        }
      },
      "oauth_client": [
        {
          "client_id": "144790832841-3nrsslk9mamkcm0kns9vjo3jhpgf307l.apps.googleusercontent.com",
          "client_type": 3
        }
      ],
      "api_key": [
        {
          "current_key": "AIzaSyD9jI1HSHFDsVCcM9zl16xLvYIaz1-6eEQ"
        }
      ],
      "services": {
        "appinvite_service": {
          "other_platform_oauth_client": [
            {
              "client_id": "144790832841-3nrsslk9mamkcm0kns9vjo3jhpgf307l.apps.googleusercontent.com",
              "client_type": 3
            }
          ]
        }
      }
    },
    {
      "client_info": {
        "mobilesdk_app_id": "1:144790832841:android:5bcf39ecd7a666451d6f18",
        "android_client_info": {
          "package_name": "com.drxmob.user"
        }
      },
      "oauth_client": [
        {
          "client_id": "144790832841-3nrsslk9mamkcm0kns9vjo3jhpgf307l.apps.googleusercontent.com",
          "client_type": 3
        }
      ],
      "api_key": [
        {
          "current_key": "AIzaSyD9jI1HSHFDsVCcM9zl16xLvYIaz1-6eEQ"
        }
      ],
      "services": {
        "appinvite_service": {
          "other_platform_oauth_client": [
            {
              "client_id": "144790832841-3nrsslk9mamkcm0kns9vjo3jhpgf307l.apps.googleusercontent.com",
              "client_type": 3
            }
          ]
        }
      }
    }
  ],
  "configuration_version": "1"
}